<svg width="884" height="128" viewBox="0 0 884 128" fill="none" xmlns="http://www.w3.org/2000/svg">
<path d="M0 22V103H81.0344V22H0ZM101.273 22V103H182.306V22H101.273ZM202.467 22V103H283.5V22H202.467ZM246.645 39.2387C249.165 39.2387 251.528 39.4759 253.812 40.0269C256.095 40.5779 258.142 41.2859 260.111 42.3093V51.1254C258.379 49.9447 256.411 49.0791 254.363 48.4494C252.237 47.8197 250.031 47.5042 247.905 47.5829C244.755 47.5829 242.078 48.1342 239.873 49.315C237.668 50.417 235.935 52.2272 234.833 54.3526C233.652 56.5567 233.1 59.2329 233.1 62.3816C233.1 65.5302 233.652 68.2857 234.833 70.4898C235.935 72.6938 237.668 74.426 239.794 75.6067C241.999 76.7875 244.598 77.3378 247.669 77.3378C252.394 77.3378 256.726 76.0789 260.742 73.6386V82.3755H260.663C258.773 83.3989 256.568 84.2655 254.127 84.8165C251.607 85.4461 249.008 85.682 246.252 85.682C242.629 85.682 239.322 85.1309 236.408 84.1076C233.494 83.0055 231.053 81.5098 229.006 79.5419C226.958 77.574 225.462 75.1343 224.359 72.2218C223.257 69.3094 222.784 66.0817 222.784 62.4608C222.784 58.9186 223.335 55.77 224.438 52.8574C225.54 50.0236 227.194 47.5831 229.242 45.5365C231.368 43.4899 233.888 41.9158 236.802 40.8924C239.716 39.7904 243.023 39.2387 246.645 39.2387ZM22.7589 39.7116H39.8472C44.8872 39.7116 48.825 40.735 51.5812 42.7028C54.3375 44.7495 55.7551 47.583 55.7551 51.3613C55.7551 53.5655 55.2831 55.3766 54.2593 57.0296C53.2356 58.6039 51.8181 59.8625 49.8494 60.8071C52.5269 61.673 54.5737 63.0905 55.9912 65.0585C57.4087 66.9477 58.1178 69.3091 58.1178 72.0642C58.1966 74.8193 57.488 77.1804 56.0705 79.1483C54.653 81.1162 52.6838 82.6123 50.1638 83.6356C47.5651 84.659 44.4939 85.2091 40.9502 85.2091H22.7589V39.7116ZM124.11 39.7116H141.199C146.239 39.7116 150.176 40.735 152.933 42.7028C155.689 44.7495 157.106 47.583 157.106 51.3613C157.106 53.5655 156.634 55.3766 155.611 57.0296C154.587 58.6039 153.169 59.8625 151.201 60.8071C153.878 61.673 155.925 63.0905 157.343 65.0585C158.76 66.9477 159.469 69.3091 159.469 72.0642C159.39 74.8193 158.681 77.1804 157.343 79.1483C155.925 81.1162 153.957 82.6123 151.437 83.6356C148.838 84.659 145.767 85.2091 142.223 85.2091H124.11V39.7116ZM31.9726 47.1109V58.4464H38.9813C41.4225 58.4464 43.2342 57.8952 44.4942 56.8719C45.7542 55.8486 46.3837 54.3526 46.3837 52.5422C46.3837 48.9212 43.9425 47.1109 38.9813 47.1109H31.9726ZM133.246 47.1109V58.4464H140.254C142.695 58.4464 144.507 57.8952 145.767 56.8719C147.027 55.8486 147.657 54.3526 147.657 52.5422C147.657 48.9212 145.215 47.1109 140.254 47.1109H133.246ZM31.9726 65.6098V77.8891H40.0049C42.7612 77.8891 44.8875 77.338 46.3837 76.3146C47.88 75.2914 48.5887 73.7962 48.5887 71.8282C48.6675 67.6563 45.8326 65.6098 40.1626 65.6098H31.9726ZM133.246 65.6098V77.8891H141.278C144.034 77.8891 146.16 77.338 147.657 76.3146C149.153 75.2914 149.862 73.7962 149.862 71.8282C149.94 67.6563 147.106 65.6098 141.436 65.6098H133.246Z" fill="#FFB800"/>
<path d="M364.826 127.34C358.103 127.34 351.437 126.599 344.827 125.118C338.332 123.637 332.065 121.301 326.026 118.11V94.5222C338.218 101.929 351.152 105.632 364.826 105.632C372.574 105.632 378.443 104.322 382.431 101.701C386.533 99.0802 388.585 95.4338 388.585 90.7618C388.585 87.2293 387.559 84.4945 385.508 82.5573C383.571 80.5062 380.95 78.9109 377.645 77.7714C374.341 76.5179 370.637 75.3784 366.535 74.3529C359.812 72.7576 353.887 70.9344 348.759 68.8833C343.631 66.8321 339.301 64.4392 335.768 61.7043C332.236 58.8556 329.558 55.494 327.735 51.6197C325.912 47.6314 325 42.9025 325 37.4328C325 29.6842 326.937 23.0181 330.812 17.4345C334.8 11.8509 340.383 7.57772 347.562 4.615C354.741 1.53833 363.287 0 373.201 0C379.696 0 386.078 0.740682 392.345 2.22204C398.612 3.7034 404.253 5.69754 409.267 8.20446V31.4504C404.253 28.3737 398.555 25.9808 392.174 24.2715C385.907 22.5623 379.582 21.7076 373.201 21.7076C366.25 21.7076 360.838 22.9041 356.963 25.2971C353.203 27.69 351.323 31.1086 351.323 35.5526C351.323 38.7433 352.234 41.3072 354.057 43.2443C355.881 45.0675 358.445 46.6059 361.749 47.8593C365.168 48.9988 369.156 50.1383 373.714 51.2779C379.525 52.7592 384.938 54.4115 389.952 56.2347C394.966 57.944 399.353 60.166 403.113 62.9008C406.988 65.6357 409.95 69.1111 412.001 73.3273C414.167 77.5435 415.249 82.7283 415.249 88.8816C415.249 96.9721 413.255 103.923 409.267 109.735C405.278 115.432 399.524 119.819 392.003 122.896C384.482 125.859 375.423 127.34 364.826 127.34V127.34Z" fill="#FFB800"/>
<path d="M432.244 124.776V2.56384H476.172C491.897 2.56384 503.976 6.03934 512.408 12.9903C520.84 19.9413 525.057 29.912 525.057 42.9024C525.057 51.4487 523.119 58.7416 519.245 64.781C515.485 70.7064 509.958 75.2644 502.665 78.4551C495.372 81.5317 486.484 83.0701 476.001 83.0701H458.224V124.776H432.244ZM458.224 62.388H474.633C482.382 62.388 488.25 60.8497 492.239 57.773C496.341 54.5824 498.392 49.6255 498.392 42.9024C498.392 36.1793 496.341 31.2225 492.239 28.0318C488.25 24.8412 482.439 23.2459 474.804 23.2459H458.224V62.388Z" fill="#FFB800"/>
<path d="M597.329 0C606.559 0 614.877 1.48136 622.284 4.44408C629.805 7.4068 636.186 11.68 641.428 17.2635C646.783 22.7332 650.886 29.3993 653.734 37.2619C656.583 45.0106 658.008 53.7848 658.008 63.5845C658.008 73.2704 656.583 82.0446 653.734 89.9072C650.886 97.7698 646.783 104.493 641.428 110.076C636.186 115.66 629.805 119.933 622.284 122.896C614.877 125.859 606.559 127.34 597.329 127.34C588.099 127.34 579.723 125.859 572.203 122.896C564.796 119.933 558.415 115.66 553.059 110.076C547.817 104.493 543.772 97.7698 540.923 89.9072C538.074 82.0446 536.65 73.2704 536.65 63.5845C536.65 53.7848 538.074 45.0106 540.923 37.2619C543.772 29.3993 547.817 22.7332 553.059 17.2635C558.415 11.68 564.796 7.4068 572.203 4.44408C579.723 1.48136 588.099 0 597.329 0ZM597.329 104.436C604.28 104.436 610.262 102.841 615.276 99.65C620.29 96.3454 624.107 91.6734 626.728 85.634C629.349 79.5946 630.659 72.2448 630.659 63.5845C630.659 54.9243 629.349 47.5745 626.728 41.5351C624.107 35.4957 620.29 30.8807 615.276 27.69C610.262 24.4994 604.28 22.9041 597.329 22.9041C590.378 22.9041 584.395 24.4994 579.381 27.69C574.368 30.8807 570.55 35.4957 567.929 41.5351C565.309 47.5745 563.998 54.9243 563.998 63.5845C563.998 72.2448 565.309 79.5946 567.929 85.634C570.55 91.6734 574.368 96.3454 579.381 99.65C584.395 102.841 590.378 104.436 597.329 104.436Z" fill="#FFB800"/>
<path d="M702.013 80.3353V124.776H676.032V2.56384H720.644C736.711 2.56384 749.018 5.92539 757.564 12.6485C766.224 19.3716 770.554 29.0004 770.554 41.535C770.554 49.6255 768.617 56.5196 764.743 62.2171C760.983 67.9146 755.57 72.3017 748.505 75.3784C753.633 83.4689 758.704 91.6164 763.717 99.8208C768.731 107.911 773.745 116.23 778.759 124.776H748.505C740.3 109.735 731.811 94.921 723.037 80.3353C722.125 80.3353 721.271 80.3353 720.473 80.3353H702.013ZM702.013 59.6532H719.106C727.196 59.6532 733.349 58.2288 737.566 55.38C741.782 52.4173 743.89 47.8023 743.89 41.535C743.89 35.2677 741.782 30.6527 737.566 27.69C733.463 24.7273 727.367 23.2459 719.277 23.2459H702.013V59.6532Z" fill="#FFB800"/>
<path d="M780.552 2.56384H883.791V25.468H845.333V124.776H819.01V25.468H780.552V2.56384Z" fill="#FFB800"/>
</svg>
