<svg width="749" height="134" viewBox="0 0 749 134" fill="none" xmlns="http://www.w3.org/2000/svg">
<path d="M325 3.5448H432.571V27.4098H392.499V130.884H365.072V27.4098H325V3.5448Z" fill="#0FA88B"/>
<path d="M554.392 130.884C550.34 116.518 546.347 102.151 542.413 87.7847C538.599 73.4182 534.845 59.0517 531.15 44.6852C527.574 59.0517 523.879 73.4182 520.065 87.7847C516.25 102.151 512.317 116.518 508.264 130.884H479.121C473.043 110.106 467.202 89.0907 461.6 67.8378C455.998 46.5849 450.694 25.1539 445.688 3.5448H475.724C478.704 20.0485 481.863 36.5521 485.2 53.0558C488.538 69.5594 492.054 85.7663 495.749 101.676C503.735 70.6874 511.304 39.7579 518.455 8.88771H545.274C548.85 24.0853 552.485 39.2829 556.18 54.4805C559.995 69.5594 563.868 84.6383 567.802 99.7172C571.378 84.0446 574.834 68.1346 578.172 51.9872C581.509 35.8397 584.608 19.6923 587.469 3.5448H616.969C611.963 25.1539 606.659 46.5849 601.057 67.8378C595.455 89.0907 589.614 110.106 583.535 130.884H554.392Z" fill="#0FA88B"/>
<path d="M685.493 0.873291C695.11 0.873291 703.778 2.4168 711.495 5.50382C719.331 8.59084 725.98 13.0433 731.442 18.8611C737.022 24.5602 741.297 31.506 744.265 39.6984C747.233 47.7722 748.717 56.9145 748.717 67.1254C748.717 77.2175 747.233 86.3599 744.265 94.5523C741.297 102.745 737.022 109.75 731.442 115.568C725.98 121.386 719.331 125.838 711.495 128.925C703.778 132.012 695.11 133.556 685.493 133.556C675.876 133.556 667.149 132.012 659.313 128.925C651.595 125.838 644.946 121.386 639.366 115.568C633.904 109.75 629.689 102.745 626.721 94.5523C623.753 86.3599 622.269 77.2175 622.269 67.1254C622.269 56.9145 623.753 47.7722 626.721 39.6984C629.689 31.506 633.904 24.5602 639.366 18.8611C644.946 13.0433 651.595 8.59084 659.313 5.50382C667.149 2.4168 675.876 0.873291 685.493 0.873291ZM685.493 109.691C692.736 109.691 698.969 108.028 704.193 104.704C709.417 101.261 713.395 96.3927 716.126 90.0999C718.856 83.8071 720.222 76.149 720.222 67.1254C720.222 58.1018 718.856 50.4436 716.126 44.1509C713.395 37.8581 709.417 33.0495 704.193 29.725C698.969 26.4005 692.736 24.7383 685.493 24.7383C678.25 24.7383 672.017 26.4005 666.793 29.725C661.569 33.0495 657.591 37.8581 654.86 44.1509C652.129 50.4436 650.764 58.1018 650.764 67.1254C650.764 76.149 652.129 83.8071 654.86 90.0999C657.591 96.3927 661.569 101.261 666.793 104.704C672.017 108.028 678.25 109.691 685.493 109.691Z" fill="#0FA88B"/>
<path d="M0 26V107H81.0344V26H0ZM101.273 26V107H182.306V26H101.273ZM202.467 26V107H283.5V26H202.467ZM246.645 43.2387C249.165 43.2387 251.528 43.4759 253.812 44.0269C256.095 44.5779 258.142 45.2859 260.111 46.3093V55.1254C258.379 53.9447 256.411 53.0791 254.363 52.4494C252.237 51.8197 250.031 51.5042 247.905 51.5829C244.755 51.5829 242.078 52.1342 239.873 53.315C237.668 54.417 235.935 56.2272 234.833 58.3526C233.652 60.5567 233.1 63.2329 233.1 66.3816C233.1 69.5302 233.652 72.2857 234.833 74.4898C235.935 76.6938 237.668 78.426 239.794 79.6067C241.999 80.7875 244.598 81.3378 247.669 81.3378C252.394 81.3378 256.726 80.0789 260.742 77.6386V86.3755H260.663C258.773 87.3989 256.568 88.2655 254.127 88.8165C251.607 89.4461 249.008 89.682 246.252 89.682C242.629 89.682 239.322 89.1309 236.408 88.1076C233.494 87.0055 231.053 85.5098 229.006 83.5419C226.958 81.574 225.462 79.1343 224.359 76.2218C223.257 73.3094 222.784 70.0817 222.784 66.4608C222.784 62.9186 223.335 59.77 224.438 56.8574C225.54 54.0236 227.194 51.5831 229.242 49.5365C231.368 47.4899 233.888 45.9158 236.802 44.8924C239.716 43.7904 243.023 43.2387 246.645 43.2387ZM22.7589 43.7116H39.8472C44.8872 43.7116 48.825 44.735 51.5812 46.7028C54.3375 48.7495 55.7551 51.583 55.7551 55.3613C55.7551 57.5655 55.2831 59.3766 54.2593 61.0296C53.2356 62.6039 51.8181 63.8625 49.8494 64.8071C52.5269 65.673 54.5737 67.0905 55.9912 69.0585C57.4087 70.9477 58.1178 73.3091 58.1178 76.0642C58.1966 78.8193 57.488 81.1804 56.0705 83.1483C54.653 85.1162 52.6838 86.6123 50.1638 87.6356C47.5651 88.659 44.4939 89.2091 40.9502 89.2091H22.7589V43.7116ZM124.11 43.7116H141.199C146.239 43.7116 150.176 44.735 152.933 46.7028C155.689 48.7495 157.106 51.583 157.106 55.3613C157.106 57.5655 156.634 59.3766 155.611 61.0296C154.587 62.6039 153.169 63.8625 151.201 64.8071C153.878 65.673 155.925 67.0905 157.343 69.0585C158.76 70.9477 159.469 73.3091 159.469 76.0642C159.39 78.8193 158.681 81.1804 157.343 83.1483C155.925 85.1162 153.957 86.6123 151.437 87.6356C148.838 88.659 145.767 89.2091 142.223 89.2091H124.11V43.7116ZM31.9726 51.1109V62.4464H38.9813C41.4225 62.4464 43.2342 61.8952 44.4942 60.8719C45.7542 59.8486 46.3837 58.3526 46.3837 56.5422C46.3837 52.9212 43.9425 51.1109 38.9813 51.1109H31.9726ZM133.246 51.1109V62.4464H140.254C142.695 62.4464 144.507 61.8952 145.767 60.8719C147.027 59.8486 147.657 58.3526 147.657 56.5422C147.657 52.9212 145.215 51.1109 140.254 51.1109H133.246ZM31.9726 69.6098V81.8891H40.0049C42.7612 81.8891 44.8875 81.338 46.3837 80.3146C47.88 79.2914 48.5887 77.7962 48.5887 75.8282C48.6675 71.6563 45.8326 69.6098 40.1626 69.6098H31.9726ZM133.246 69.6098V81.8891H141.278C144.034 81.8891 146.16 81.338 147.657 80.3146C149.153 79.2914 149.862 77.7962 149.862 75.8282C149.94 71.6563 147.106 69.6098 141.436 69.6098H133.246Z" fill="#0FA88B"/>
</svg>
