<svg width="694" height="134" viewBox="0 0 694 134" fill="none" xmlns="http://www.w3.org/2000/svg">
<path d="M388.55 0.873352C398.217 0.873352 406.929 2.41685 414.687 5.50387C422.563 8.59088 429.247 13.0433 434.736 18.8611C440.346 24.5602 444.642 31.506 447.626 39.6985C450.609 47.7722 452.101 56.9145 452.101 67.1254C452.101 77.2176 450.609 86.3599 447.626 94.5524C444.642 102.745 440.346 109.75 434.736 115.568C429.247 121.386 422.563 125.838 414.687 128.925C406.929 132.012 398.217 133.556 388.55 133.556C378.884 133.556 370.112 132.012 362.235 128.925C354.478 125.838 347.795 121.386 342.185 115.568C336.696 109.75 332.459 102.745 329.475 94.5524C326.492 86.3599 325 77.2176 325 67.1254C325 56.9145 326.492 47.7722 329.475 39.6985C332.459 31.506 336.696 24.5602 342.185 18.8611C347.795 13.0433 354.478 8.59088 362.235 5.50387C370.112 2.41685 378.884 0.873352 388.55 0.873352ZM388.55 109.691C395.83 109.691 402.096 108.028 407.347 104.704C412.598 101.261 416.596 96.3927 419.341 90.0999C422.086 83.8072 423.458 76.149 423.458 67.1254C423.458 58.1018 422.086 50.4437 419.341 44.1509C416.596 37.8582 412.598 33.0495 407.347 29.7251C402.096 26.4006 395.83 24.7383 388.55 24.7383C381.271 24.7383 375.005 26.4006 369.754 29.7251C364.503 33.0495 360.505 37.8582 357.76 44.1509C355.015 50.4437 353.642 58.1018 353.642 67.1254C353.642 76.149 355.015 83.8072 357.76 90.0999C360.505 96.3927 364.503 101.261 369.754 104.704C375.005 108.028 381.271 109.691 388.55 109.691Z" fill="#EB504A"/>
<path d="M552.233 130.884C542.972 116.043 533.592 101.201 524.093 86.3599C514.595 71.3998 505.215 56.9145 495.954 42.9042V130.884H469.596V3.5448H497.379C506.996 17.9113 516.435 32.3372 525.696 46.8224C535.076 61.1889 544.396 75.7928 553.657 90.6342V3.5448H580.016V130.884H552.233Z" fill="#EB504A"/>
<path d="M602.298 3.5448H689.922V26.3412H629.725V53.9462H683.154V76.7427H629.725V108.088H693.306V130.884H602.298V3.5448Z" fill="#EB504A"/>
<path d="M0 26V107H81.1773V26H0ZM101.452 26V107H182.628V26H101.452ZM202.824 26V107H284V26H202.824ZM247.08 43.2387C249.605 43.2387 251.972 43.4759 254.259 44.0269C256.547 44.5779 258.598 45.2859 260.57 46.3093V55.1254C258.834 53.9447 256.863 53.0791 254.812 52.4494C252.682 51.8197 250.472 51.5042 248.342 51.5829C245.187 51.5829 242.505 52.1342 240.296 53.315C238.087 54.417 236.352 56.2272 235.247 58.3526C234.064 60.5567 233.511 63.2329 233.511 66.3816C233.511 69.5302 234.064 72.2857 235.247 74.4898C236.352 76.6938 238.087 78.426 240.217 79.6067C242.426 80.7875 245.029 81.3378 248.106 81.3378C252.839 81.3378 257.179 80.0789 261.202 77.6386V86.3755H261.122C259.229 87.3989 257.021 88.2655 254.575 88.8165C252.051 89.4461 249.447 89.682 246.686 89.682C243.057 89.682 239.744 89.1309 236.825 88.1076C233.906 87.0055 231.461 85.5098 229.409 83.5419C227.358 81.574 225.86 79.1343 224.755 76.2218C223.651 73.3094 223.177 70.0817 223.177 66.4608C223.177 62.9186 223.729 59.77 224.834 56.8574C225.938 54.0236 227.595 51.5831 229.646 49.5365C231.776 47.4899 234.301 45.9158 237.219 44.8924C240.138 43.7904 243.451 43.2387 247.08 43.2387ZM22.799 43.7116H39.9175C44.9664 43.7116 48.9111 44.735 51.6722 46.7028C54.4333 48.7495 55.8535 51.583 55.8535 55.3613C55.8535 57.5655 55.3806 59.3766 54.355 61.0296C53.3295 62.6039 51.9095 63.8625 49.9373 64.8071C52.6195 65.673 54.67 67.0905 56.09 69.0585C57.51 70.9477 58.2203 73.3091 58.2203 76.0642C58.2992 78.8193 57.5894 81.1804 56.1694 83.1483C54.7494 85.1162 52.7768 86.6123 50.2523 87.6356C47.649 88.659 44.5724 89.2091 41.0224 89.2091H22.799V43.7116ZM124.329 43.7116H141.448C146.496 43.7116 150.441 44.735 153.202 46.7028C155.963 48.7495 157.384 51.583 157.384 55.3613C157.384 57.5655 156.911 59.3766 155.885 61.0296C154.86 62.6039 153.44 63.8625 151.467 64.8071C154.15 65.673 156.2 67.0905 157.62 69.0585C159.04 70.9477 159.75 73.3091 159.75 76.0642C159.671 78.8193 158.961 81.1804 157.62 83.1483C156.2 85.1162 154.228 86.6123 151.704 87.6356C149.1 88.659 146.024 89.2091 142.474 89.2091H124.329V43.7116ZM32.029 51.1109V62.4464H39.05C41.4956 62.4464 43.3104 61.8952 44.5727 60.8719C45.8349 59.8486 46.4656 58.3526 46.4656 56.5422C46.4656 52.9212 44.02 51.1109 39.05 51.1109H32.029ZM133.481 51.1109V62.4464H140.502C142.947 62.4464 144.762 61.8952 146.024 60.8719C147.286 59.8486 147.917 58.3526 147.917 56.5422C147.917 52.9212 145.472 51.1109 140.502 51.1109H133.481ZM32.029 69.6098V81.8891H40.0755C42.8366 81.8891 44.9667 81.338 46.4656 80.3146C47.9645 79.2914 48.6744 77.7962 48.6744 75.8282C48.7534 71.6563 45.9134 69.6098 40.2334 69.6098H32.029ZM133.481 69.6098V81.8891H141.527C144.288 81.8891 146.418 81.338 147.917 80.3146C149.416 79.2914 150.126 77.7962 150.126 75.8282C150.205 71.6563 147.365 69.6098 141.685 69.6098H133.481Z" fill="#EB504A"/>
</svg>
